…
Como sempre, se usamos apenas o nome da varivel df_metodos na Console, R tenta exibir todo seu contedo:

df_metodos

# A tibble: 60 x 3
      ID Idade Metodo      
   <int> <dbl> <fct>       
 1     1    15 Tabelinha   
 2     2    15 Tabelinha   
 3     3    16 Preservativo
 4     4    17 Plula      
 5     5    16 Plula      
 6     6    15 Tabelinha   
 7     7    17 Tabelinha   
 8     8    16 Preservativo
 9     9    17 Plula      
10    10    16 Preservativo
#  with 50 more rows
…
